889a242a39ff4a9c496e27afed419beb helloworld_0.2.7.tar.gz
f1eabc46d7c53db5db4f1687cad40a51 helloworld_0.2.9.tar.gz
373f1db510e03ead084ba18ed84b005c helloworld_0.3.0.tar.gz
81d5f37a6716c2e424d9c5c2280194c2 helloworld_0.3.1.tar.gz
b4dab85fe8df08f5de232d52bcc6326c helloworld_0.3.3.tar.gz
4a8906808b3f6cf540eeb17521517cc4 helloworld_0.3.4.tar.gz
f6b29552c712394988e7ba188e733999 helloworld_0.3.5.tar.gz
d051e1fee05ae742d5ca7d389e4f5253 helloworld_0.3.6.tar.gz
b1eceefea6bf9b2266f6d90dbb179b86 helloworld_0.3.7.tar.gz
211281feef85fc1c67c130034be3e12e helloworld_0.3.8.tar.gz
52db7287ab9e89fd42b8fb3d4c5dba99 helloworld_0.4.0.tar.gz
f6d4bd8becfcb1b05b68d61449b3e5c1 helloworld_0.4.1.tar.gz
a8b1ebb24f7cf3bf20b8fd984f49b2c4 helloworld_0.4.2.tar.gz
9cd38c666ca05150a59d16952a649f7e helloworld_0.4.3.tar.gz
79bdeceabcbee9b9cb5e1dbaea8cf76a helloworld_0.4.4.tar.gz
de4ce7fe0d3eed46c93536e369cf9b27 helloworld_0.4.5.tar.gz
9efc14ce08b7fdfccdb085db5d3048d9 helloworld_0.4.6.tar.gz
32be66c6d158e8da7f3ec1c3d84c1f73 helloworld_0.4.7.tar.gz
2b26416492a4db9c4434f05f644c08e0 helloworld_0.4.8.tar.gz
f5157785348f47a88b7fcac08db9e138 helloworld_0.4.9.tar.gz
81da1727449e10baaac4ef836a5cad56 helloworld_0.5.0.tar.gz
ca57d8f7d38ab4ee3fd681426b26549d helloworld_0.5.1.tar.gz
c26c5d251b72d0e85bae0446280964f2 helloworld_0.5.2.tar.gz
1cdc63c682ed75580e63eaf167c214f8 helloworld_0.5.3.tar.gz
a7b640b4b3ae1192cb7549d125e2a95a helloworld_0.5.4.tar.gz
8f8f8347bdfcda97b7e215f78c01409b helloworld_0.5.5.tar.gz
24f9c4204c02fd5addd916554c999968 helloworld_0.5.6.tar.gz
ff1a0bcbbefc2100a9590d19d17d86e0 helloworld_0.5.7.tar.gz
dd37b3d34bb17633e44ad43d9208ad29 helloworld_0.5.8.tar.gz
84b55683d89136a453bce15b1e11dbf8 helloworld_0.5.9.tar.gz
b25d550c5daa2a952c68a89f8acf20b6 helloworld_0.6.0.tar.gz
0c923c5407a510f76d725432ef6f92b8 helloworld_0.6.1.tar.gz
2813bcdd40c7af52304f609c2b36e98c helloworld_0.6.2.tar.gz
07359a06e5900041c471e7bc5d8f141b helloworld_0.6.3.tar.gz
2d140ffd543189884601832744e6a88b helloworld_0.6.4.tar.gz
5563caebe4a1c2d5467b3897e4e3a029 helloworld_0.6.5.tar.gz
d869abd4fce06fa20777eafb5bd1318d helloworld_0.6.7.tar.gz
834d1a88c48af6a821d1611d00be9f40 helloworld_0.6.8.tar.gz
25765ff851621990b509d1efd52d988c helloworld_0.6.9.tar.gz
38f6058e540268db25bd80a081bb1ff4 helloworld_0.7.0.tar.gz
b3bff9639fd1b30da843f777817b96b5 helloworld_0.7.2.tar.gz
cff277c2467b44d73a6f23bf56674c96 helloworld_0.7.4.tar.gz
9ce8bd723af80761614bff7d548058b5 helloworld_0.7.5.tar.gz
e2d9350c380e0e0d6a22e6b87aa6e4b4 helloworld_0.7.6.tar.gz
8e5680f3d45adca274f76b929067477f helloworld_0.7.7.tar.gz
55f1d4b4991e935ae4af37da674a40e7 helloworld_0.7.8.tar.gz
050ae551fd39ed7bfd8610b218b955f9 helloworld_0.7.9.tar.gz
37a3da4eb9f1a8e62874b04884036b6e helloworld_0.8.0.tar.gz
